{
  "name": "app",
  "dependencies": {
    "fetch-mock": "registry:npm/fetch-mock#4.1.1+20160712175252",
    "react-test-renderer": "registry:dt/react-test-renderer#15.4.0+20161127221400"
  },
  "globalDependencies": {
    "jest": "registry:dt/jest#16.0.0+20161220121457"
  }
}
